# ProBuilder 5.0.0
# https://unity3d.com/unity/features/worldbuilding/probuilder
# 10.01.2021 23:43:44

mtllib ./sponza_floor_aobj.mtl
o sponza_floor_aobj

g sponza_117_sponza_117_floor (1)
v -11.42816 -0.02004982 1.700715
v -11.42816 -0.02004929 -2.263531
v 10.41752 -0.02004929 -2.257349
v 10.41753 -0.02004982 1.703808

vt 7.611676 1.318082
vt 7.611677 -1.421371
vt -7.484565 -1.417099
vt -7.484565 1.32022

vn -7.110101E-11 1 1.341978E-07

usemtl floor_refl_1
f 1/1/1 4/4/1 3/3/1 2/2/1

