%YAML 1.1
%TAG !u! tag:unity3d.com,2011:
--- !u!114 &11400000
MonoBehaviour:
  m_ObjectHideFlags: 0
  m_CorrespondingSourceObject: {fileID: 0}
  m_PrefabInstance: {fileID: 0}
  m_PrefabAsset: {fileID: 0}
  m_GameObject: {fileID: 0}
  m_Enabled: 1
  m_EditorHideFlags: 0
  m_Script: {fileID: 11500000, guid: fa3318029c442f6439cfaeadee9b867e, type: 3}
  m_Name: ShaderLOD_settings
  m_EditorClassIdentifier: 
  lod1Distance: 5
  lod2Distance: 10
  cullDistance: 0
  shouldCull: 0
